,IndexID,Date,ActionID,Cash/sh,Stock/sh,PaymentType,DealCurrency,TgtTicker,AcqTicker,TgtBBGID,AcqBBGID,TgtISIN,AcqISIN,ExpectedCompletion,TgtEODPrice,AcqEODPrice,TgtSODPrice,AcqSODPrice,TgtEqyShOut,TgtUnaffectedPX,TgtUnaffectedBetaToIndustry,TgtUnaffectedBetaToSP500,TgtUnaffectedStressBetaToSP500,TgtIndustryIndexReturnSinceAnncDt,AcqIndustryIndexReturnSinceAnncDt,TgtEODDownsidePX
0,3,2018-07-06,170105355 Action,41.5,,Cash,USD,EDR US Equity,114208Z US Equity,BBG000Q98NQ4,BBG000NVC5X4,US28140H2031,,2018-10-31,41.69,,41.73,,80.581,34.69,,,,5.593475211616972,,35.00052640827296
1,3,2018-07-06,150115523 Action,30.0,0.0,Cash,USD,NXTM US Equity,FME GR Equity,BBG000HSPTH0,BBG000DHXQT2,US67072V1035,DE0005785802,2018-12-31,28.22,84.06,28.03,83.04,66.497,23.12,,,,18.160034828036565,18.160034828036565,26.347911953691597
2,3,2018-07-06,170401955 Action,137.0,0.0,Cash,USD,FMI US Equity,ROG SW Equity,BBG002137DN6,BBG000BNV243,US3504651007,CH0012032048,2018-12-31,136.625,223.9,136.75,224.75,37.113,84.8,,,,3.836085805854128,3.836085805854128,85.6488887650358
3,3,2018-07-06,165619814 Action,0.0,3.575,Stock,CAD,LEAF CN Equity,ACB CN Equity,BBG00GH3KBS2,BBG000RSS169,CA58506X1042,CA05156X1087,2018-08-31,30.42,9.23,29.39,9.2,101.296,15.1,,,,3.094702621584333,3.094702621584333,15.461002927460584
4,3,2018-07-06,157058311 Action,0.0,0.669,Stock,USD,SCG US Equity,D US Equity,BBG000BSLLB3,BBG000BGVW60,US80589M1027,US25746U1097,2018-12-31,40.62,69.98,40.54,69.72,142.917,37.39,,,,-2.3484173709022116,-2.3484173709022116,41.13290073023763
5,3,2018-07-06,156327582 Action,20.0,0.42,Cash and Stock,USD,PNK US Equity,PENN US Equity,BBG007HJ3448,BBG000CDZLV8,US72348Y1055,US7075691094,2018-12-31,34.3,34.85,33.79,33.84,58.495,28.79,,,,-5.207199394970163,-5.207199394970163,30.466769833949375
6,3,2018-07-06,164801149 Action,72.0,0.0,Cash,USD,VVC US Equity,CNP US Equity,BBG000BFJSG4,BBG000FDBX90,US92240G1013,US15189T1079,2019-02-15,71.45,27.985,71.45,27.82,83.081,63.23,,,,6.278663944132434,6.278663944132434,64.80450240728942
7,3,2018-07-06,168372209 Action,5.54,1.45,Cash and Stock,USD,MBFI US Equity,FITB US Equity,BBG000K7ZGT6,BBG000BJL3N0,US55264U1088,US3167731005,2018-12-31,47.34,29.09,46.95,28.8,84.078,42.23,,,,-3.7144965394237506,-3.7144965394237506,43.25430910416582
8,3,2018-07-06,160710654 Action,1.2,0.0,Cash,GBP,HRG LN Equity,AXP US Equity,BBG000BS8F85,BBG000BCQZS4,GB00B1CM8S45,US0258161092,2018-09-30,120.0,98.62,119.0,98.46,327.785,,,,,4.797324844909512,-5.435319288857743,
9,3,2018-07-06,164881059 Action,11.15,,Cash,USD,MITL US Equity,0111436D LN Equity,BBG000R5WJB9,BBG002BLYNZ0,CA60671Q1046,,2018-11-15,10.96,,10.94,,122.611,9.25,,,,4.583374316216382,,9.480175244502826
10,3,2018-07-06,149064104 Action,53.0,0.0,Cash,USD,AVA US Equity,H CN Equity,BBG000BCNF74,BBG00B0VKL16,US05379B1070,CA4488112083,2018-12-31,52.88,20.22,52.85,20.22,65.669,41.35,,,,3.0065539208945946,3.0065539208945946,48.84783455629017
11,3,2018-07-06,164187273 Action,0.0,0.103,Stock,USD,S US Equity,TMUS US Equity,BBG004S5X3Y9,BBG000NDV1D4,US85207U1051,US8725901040,2019-06-30,5.615,61.06,5.48,60.07,4012.307,4.85,,,,-0.0058367922751600965,-0.0058367922751600965,4.969962524075794
12,3,2018-07-06,165732511 Action,27.5,0.0,Cash,USD,GPT US Equity,BX US Equity,BBG000VYNC17,BBG000BH0106,US3850023082,US09253U1088,2018-12-31,27.32,35.55,27.34,35.0,160.793,21.89,,,,7.885344224896063,-4.489054449277008,22.427075859455066
13,3,2018-07-06,154414518 Action,145.0,0.838,Cash and Stock,USD,AET US Equity,CVS US Equity,BBG000FJLFX8,BBG000BGRY34,US00817Y1082,US1266501006,2018-12-31,186.17,66.43,185.01,64.96,327.1,171.0,,,,13.29740899628975,13.29740899628975,183.02867528282098
14,3,2018-07-06,150187154 Action,5.6,0.064,Cash and Stock,USD,OCLR US Equity,LITE US Equity,BBG000MFHD59,BBG0073F9RT7,US67555N2062,US55024U1097,2018-12-31,8.955,57.55,8.87,56.45,170.656,6.41,,,,5.619996283127837,5.619996283127837,6.45786115488979
15,3,2018-07-06,155162097 Action,11.75,0.5,Cash or Stock,USD,GGP US Equity,BPY-U CN Equity,BBG000BG3HG3,BBG0049FN2L5,US36174X1019,BMG162491077,2018-08-20,20.85,25.61,20.61,25.72,958.393,20.08,,,,7.730217837995279,7.730217837995279,20.395520500345324
16,3,2018-07-06,147241202 Action,14.75,0.165,Cash and Stock,USD,ILG US Equity,VAC US Equity,BBG000J14SM6,BBG001J2R5H3,US44967H1014,US57164Y1073,2018-12-31,33.75,116.19,33.5,115.1,124.321,30.55,,,,-6.012961697509067,-6.012961697509067,31.29915010408208
17,3,2018-07-06,170427917 Action,13.25,0.119,Cash and Stock,USD,CVG US Equity,SNX US Equity,BBG000BB4WY0,BBG000CL9JV4,US2124851062,US87162W1009,2018-12-28,25.55,103.17,25.59,102.64,91.085,23.64,,,,8.696999272676553,4.870722326717369,24.230159749250564
18,3,2018-07-06,169560475 Action,44.75,,Cash,USD,COTV US Equity,1575815D US Equity,BBG00CMSFZX7,BBG00K09Y7D8,US22164K1016,,2018-12-31,44.31,,44.3,,93.22,33.2,,,,3.050529303624594,,33.53234795989609
19,3,2018-07-06,155524125 Action,46.0,0.0,Cash,USD,EVHC US Equity,KKR US Equity,BBG00D3CHRC0,BBG000BCQ6J8,US29414D1000,US48251W1045,2018-12-31,44.35,26.89,44.03,26.76,121.255,41.74,,,,3.745739412345084,-3.6916143584463046,42.300900047133325
20,3,2018-07-06,146421588 Action,43.11,0.649,Cash and Stock,USD,PF US Equity,CAG US Equity,BBG003QPR8Z4,BBG000BDXGP9,US72348P1049,US2058871029,2018-12-31,65.47,35.83,65.7,35.95,119.184,63.47,,,,-2.566037358705542,-2.566037358705542,65.06260257285788
21,3,2018-07-06,162797989 Action,25.0,0.643,Cash or Stock,USD,STC US Equity,FNF US Equity,BBG000D6YCQ9,BBG006N7S6K9,US8603721015,US31620R3030,2019-06-30,43.87,37.96,43.64,37.88,23.732,38.98,,,,-6.4630870778645715,-6.4630870778645715,39.39900827409515
22,3,2018-07-06,170330199 Action,0.0,1.36,Stock,CAD,RRX CN Equity,BTE CN Equity,BBG002QRGBM1,BBG000BLVRT5,CA7506491058,CA07317Q1054,2018-08-31,5.845,4.475,5.7,4.32,231.303,4.3053,,,,1.0915942907886,1.0915942907886,4.350650700555587
23,3,2018-07-06,159921917 Action,35.0,0.0,Cash or Stock,USD,KS US Equity,WRK US Equity,BBG000DQJV99,BBG008NXC572,US48562P1030,US96145D1054,2018-09-30,34.68,57.055,34.67,56.48,97.79,22.69,,,,5.999270280209523,5.999270280209523,25.527278049644195
24,3,2018-07-06,165836223 Action,9.0,0.211,Cash and Stock,USD,XCRA US Equity,COHU US Equity,BBG000BNH4N4,BBG000DKMJ86,US98400J1088,US1925761066,2018-12-31,14.13,24.915,14.0,24.37,54.915,11.77,,,,0.7025326071596227,0.7025326071596227,12.05415194718479
25,3,2018-07-06,162216642 Action,38.86,0.25,Cash and Stock,USD,ORBK US Equity,KLAC US Equity,BBG000G3C0T0,BBG000BMTFR4,IL0010823388,US4824801009,2018-12-31,62.57,104.47,62.1,103.17,48.506,53.43,,,,5.709822723284597,1.4788595737767585,54.00433586672407
26,3,2018-07-06,164234050 Action,71.19,0.249,Cash and Stock,USD,FRUT IT Equity,IFF US Equity,BBG000BV7JK7,BBG000BLSL58,IL0010810823,US4595061015,2019-02-28,,125.2,,123.61,,90.05,,,,0.28358141577304874,0.28358141577304874,92.25939612352346
27,3,2018-07-06,163876936 Action,18.25,0.0,Cash,EUR,HIS SM Equity,BX US Equity,BBG0063HDV02,BBG000BH0106,ES0105019006,US09253U1088,2018-07-13,18.22,35.55,18.23,35.0,109.17,20.22,,,,2.914644754951401,-4.486309794122201,20.63888672672504
28,3,2018-07-06,163404334 Action,0.0,0.32,Stock,USD,RSPP US Equity,CXO US Equity,BBG005KSWVW5,BBG000R7RDB4,US74978Q1058,US20605P1012,2018-08-01,45.13,141.52,43.39,135.79,159.423,35.82,,,,5.311488192636027,5.311488192636027,36.66788954061167
29,3,2018-07-06,165223867 Action,0.0,1.02,Stock,USD,DCT US Equity,PLD US Equity,BBG000Q7D769,BBG000B9Z0J8,US2331532042,US74340W1036,2018-09-30,67.11,66.075,67.2,66.12,94.179,55.01,,,,8.032854620148067,8.032854620148067,56.37064710297102
30,3,2018-07-06,151847993 Action,2150.0,0.0,Cash,CLP,BANMED CI Equity,UNH US Equity,BBG000BYN6M9,BBG000CH5208,CLP1583M1072,US91324P1021,2017-12-31,2127.2,251.092,2127.2,251.01,804.682,1600.0,,,,17.775044392441863,17.775044392441863,1808.502928777255
31,3,2018-07-06,165003930 Action,68.25,0.0,Cash,USD,SJW US Equity,CWT US Equity,BBG000BT1ZY7,BBG000D8KTN6,US7843051043,US1307881029,2018-08-03,67.28,42.075,67.34,41.5,20.594,59.07,,,,7.036622770318401,7.036622770318401,60.14711659285574
32,3,2018-07-06,163403602 Action,30.33,0.839,Cash and Stock,USD,SHP LN Equity,4502 JP Equity,BBG000BFYQ44,BBG000BJPPH4,JE00B2QKY057,JP3463000004,2019-06-30,4286.0,4623.0,4272.0,4625.0,914.04,50.7,,,,2.7667516790264024,2.7667516790264024,51.92400201548589
33,3,2018-07-06,162646164 Action,5.0,0.044,Cash and Stock,GBP,NXG LN Equity,CME US Equity,BBG00CCRVDP0,BBG000BHLYP4,GB00BZ02MH16,US12572Q1058,2018-12-31,1012.0,160.08,1011.0,160.08,379.735,9.2666,,,,-3.976360405646129,-3.976360405646129,9.478520471793871
34,3,2018-07-06,170408993 Action,0.0,1.725,Stock,USD,FBNK US Equity,PBCT US Equity,BBG000P71GD5,BBG000BQT4L6,US3198501039,US7127041058,2018-12-31,31.0,18.22,30.9,18.19,15.96,25.3,,,,-2.880097503948642,-2.880097503948642,25.553265162209975
35,3,2018-07-06,167349073 Action,0.0,1.16,Stock,USD,STBZ US Equity,CADE US Equity,BBG000GDKGC2,BBG00BZSZZD5,US8561901039,US12739A1007,2018-12-31,33.17,28.73,33.21,28.67,39.115,30.62,,,,-4.425511791133141,-4.425511791133141,31.353863197632577
36,3,2018-07-06,159503879 Action,68.0,0.0,Cash,USD,VR US Equity,AIG US Equity,BBG000QS8XF2,BBG000BBDZG3,BMG9319H1025,US0268747849,2018-06-30,67.75,54.38,67.71,53.82,79.329,,,,,-7.761013513818638,-7.761013513818638,
37,3,2018-07-06,170318403 Action,6.2,0.0,Cash,CAD,AZ CN Equity,S32 AU Equity,BBG000GG2913,BBG0070L8ZT0,CA0405211065,AU000000S320,2018-09-30,6.16,3.62,6.16,3.58,313.134,3.09,,,,-0.3212665007152449,-0.3212665007152449,3.1225491056875856
38,3,2018-07-06,164115499 Action,23.04,,Cash,USD,PAY US Equity,Multiple,BBG000QRFNK2,,US92342Y1091,,2018-09-30,22.89,,22.86,,110.74,15.0,,,,5.986966298958607,,15.36387850671444
39,3,2018-07-06,165241225 Action,45.0,,Cash,USD,FNGN US Equity,6902Z US Equity,BBG000PR7FV7,BBG000BNRXW9,US3174851002,,2018-09-30,44.925,,44.95,,63.717,32.25,,,,-4.623618760728176,,33.040837671248674
40,3,2018-07-06,154996267 Action,40.0,2.176,Cash and Stock,USD,CAVM US Equity,MRVL US Equity,BBG000JDN9K3,BBG000BYWTX7,US14964U1088,BMG5876H1051,2018-11-19,86.23,21.655,85.98,21.21,70.023,66.01,,,,11.198449591391446,11.198449591391446,71.37434152431061
41,3,2018-07-06,161562861 Action,56.0,9.46,Cash and Stock,USD,CYHT US Equity,CVBF US Equity,BBG000NSZ6G3,BBG000JTYFB2,US2035071081,US1266001056,2018-09-30,268.0,22.83,268.0,22.77,3.128,186.05,,,,,-8.594007860615683,187.45530831625908
42,3,2018-07-06,163229209 Action,43.5,,Cash,USD,USG US Equity,7685199Z GR Equity,BBG000BW5YW1,BBG001CJVKW8,US9032934054,,2019-03-31,43.26,,43.2,,139.463,41.22,,,,-3.646693036740034,,41.77391231295724
43,3,2018-07-06,154570853 Action,0.0,0.875,Stock,USD,CPLA US Equity,STRA US Equity,BBG000G5S6Z8,BBG000GRZDV1,US1395941057,US8632361056,2018-09-30,102.95,117.89,102.4,117.36,11.666,65.5,,,,-1.0102799981779653,-1.0102799981779653,71.92931396476438
44,3,2018-07-06,165224851 Action,22.84,1.59,Cash or Stock,USD,ANDV US Equity,MPC US Equity,BBG000BVPPM1,BBG001DCCGR8,US03349M1053,US56585A1025,2018-12-31,133.78,70.58,131.12,69.21,151.122,100.5,,,,7.931757708963838,7.931757708963838,102.96447088249587
45,3,2018-07-06,172939580 Action,12.06,0.0,Cash,USD,BWP US Equity,L US Equity,BBG000C4YZ75,BBG000C45984,US0966271043,US5404241086,2018-07-18,12.04,48.9499,12.02,48.42,250.297,9.89,,,,0.6116294864017435,-2.1111359856570644,9.972940305198444
46,3,2018-07-06,165016044 Action,20.75,0.0,Cash,USD,QCP US Equity,WELL US Equity,BBG00CW127X1,BBG000BKY1G5,US7475451016,US95040Q1040,2018-09-30,20.6,64.31,20.68,63.93,94.196,18.92,,,,5.155220108602854,5.155220108602854,19.139399601559212
47,3,2018-07-06,160560843 Action,27.5,,Cash,USD,PERY US Equity,,BBG000BNS6G5,,US2888531041,,2018-12-31,28.36,,28.31,,15.891,26.71,,,,3.9222679460353405,,26.99135489091114
48,3,2018-07-06,164659584 Action,5.0,1.053,Cash and Stock,USD,FFKT US Equity,WSBC US Equity,BBG000BJJ4K4,BBG000BX0BJ9,US3095621062,US9508101014,2018-12-31,53.2,46.24,53.25,46.07,7.52,39.0,,,,-7.709150521440488,-7.709150521440488,39.517922149170396
49,3,2018-07-06,162207666 Action,48.75,0.243,Cash and Stock,USD,ESRX US Equity,CI US Equity,BBG000C15T95,BBG000BFMBQ6,US30219G1085,US1255091092,2018-12-31,80.2,172.35,80.25,172.0,561.531,71.71,,,,10.225106353327117,10.225106353327117,74.98538620300879
50,3,2018-07-06,150061447 Action,140.0,0.0,Cash and Stock,USD,COL US Equity,UTX US Equity,BBG000BN1XR3,BBG000BW8S60,US7743411016,US9130171096,2018-09-30,135.36,125.67,135.0,124.85,164.231,122.89,,,,1.2430367918077723,1.2430367918077723,138.98928914067065
51,3,2018-07-06,165517894 Action,9.82,0.952,Cash and Stock,USD,MTGE US Equity,NLY US Equity,BBG001PJLL71,BBG000BJFJ98,US55378A1051,US0357104092,2018-09-30,19.85,10.5,19.85,10.49,45.798,17.6,,,,-6.229012610765272,-6.229012610765272,17.752236959741467
52,3,2018-07-06,168750731 Action,5.25,0.0,Cash,AUD,IOF AU Equity,BX US Equity,BBG000DFLMY2,BBG000BH0106,AU000000IOF6,US09253U1088,2018-09-30,5.23,35.55,5.21,35.0,598.419,,,,,7.192839537118267,-3.6895354559639104,
53,3,2018-07-06,143635647 Action,15.0,,Cash,USD,RCII US Equity,8133172Z US Equity,BBG000BHQJX3,BBG001D574W0,US76009N1000,,2018-12-31,14.82,,14.82,,53.464,9.49,,,,5.671064931700531,,9.589964729118185
54,3,2018-07-06,170325369 Action,5.7,0.17,Cash and Stock,USD,COBZ US Equity,BOKF US Equity,BBG000BPMFD9,BBG000CFZ003,US1908971088,US05561Q2012,2018-12-31,21.7,95.37,21.63,95.07,42.388,21.55,,,,-2.9668564521772245,-2.9668564521772245,21.77700104452022
55,3,2018-07-06,162641652 Action,0.0,1.138,Stock,USD,CTWS US Equity,SJW US Equity,BBG000BGN4Z9,BBG000BT1ZY7,US2077971016,US7843051043,2018-12-31,66.9815,67.28,67.42,67.34,12.089,49.11,,,,-1.200467438648689,-1.200467438648689,50.93661322255873
56,3,2018-07-06,160640182 Action,0.0,0.55,Stock,USD,NSH US Equity,NS US Equity,BBG000NV7BV9,BBG000C1ZRQ7,US67059L1026,US67058H1023,2018-06-30,13.3,24.18,13.15,24.2,42.953,13.85,,,,10.759736738437798,10.759736738437798,14.82425235477819
57,3,2018-07-06,168451537 Action,0.0,0.45,Stock,USD,GBNK US Equity,IBTX US Equity,BBG000BD9552,BBG003981NS4,US40075T6073,US45384B1061,2018-12-31,30.475,68.1,30.35,67.55,29.297,28.5,,,,-3.6285756875458652,-3.6285756875458652,29.18492081187149
58,3,2018-07-06,162788419 Action,2.47,0.0,Cash or Stock,USD,KDX CN Equity,HL US Equity,BBG000D0D937,BBG000BL5W86,CA4986961031,US4227041062,2018-09-30,3.17,3.715,3.13,3.67,180.205,1.32,,,,-2.7409716349947266,-2.7409716349947266,1.3341890949667934
