,DateLoaded,ActionID,Announced Date,TgtTicker,AcqTicker,PaymentType,Cash/sh,Stock/sh,ExpectedCompletion,IsExcluded,IsVerified
78,07/03/2018,172939580 Action,06/29/2018,BWP US,L US,Cash,12.06,,07/18/2018,false,true
74,07/03/2018,170427917 Action,06/28/2018,CVG US,SNX US,Cash and Stock,13.25,0.119,12/28/2018,false,true
77,07/03/2018,172649539 Action,06/28/2018,KERX US,AKBA US,Stock,,0.374,12/31/2018,true,true
2,07/03/2018,146421588 Action,06/27/2018,PF US,CAG US,Cash and Stock,43.11,0.649,12/31/2018,false,true
68,07/03/2018,170105355 Action,06/25/2018,EDR US,114208Z US,Cash,41.5,,10/31/2018,false,true
75,07/03/2018,170553697 Action,06/21/2018,WEB US,8210273Z US,Cash,25.0,,12/31/2018,true,true
76,07/03/2018,170556241 Action,06/21/2018,GSHTU US,3390160Z US,Cash and Stock,,,09/30/2018,true,true
61,07/03/2018,167742224 Action,06/19/2018,CQH US,LNG US,Stock,,0.475,09/30/2018,true,true
66,07/03/2018,169560475 Action,06/19/2018,COTV US,1575815D US,Cash,44.75,,12/31/2018,false,true
72,07/03/2018,170401955 Action,06/19/2018,FMI US,ROG SW,Cash,137.0,,12/31/2018,false,true
73,07/03/2018,170408993 Action,06/19/2018,FBNK US,PBCT US,Stock,,1.725,12/31/2018,false,true
0,07/03/2018,143635647 Action,06/18/2018,RCII US,8133172Z US,Cash,15.0,,12/31/2018,false,true
22,07/03/2018,160560843 Action,06/18/2018,PERY US,,Cash,27.5,,12/31/2018,false,true
69,07/03/2018,170318403 Action,06/18/2018,AZ CN,S32 AU,Cash,6.2,,09/30/2018,false,true
70,07/03/2018,170325369 Action,06/18/2018,COBZ US,BOKF US,Cash and Stock,5.7,0.17,12/31/2018,false,true
71,07/03/2018,170330199 Action,06/18/2018,RRX CN,BTE CN,Stock,,1.36,08/31/2018,false,true
13,07/03/2018,155524125 Action,06/11/2018,EVHC US,KKR US,Cash,46.0,,12/31/2018,false,true
37,07/03/2018,163229209 Action,06/11/2018,USG US,7685199Z GR,Cash,43.5,,03/31/2019,false,true
46,07/03/2018,165003930 Action,06/07/2018,SJW US,CWT US,Cash,68.25,,08/03/2018,false,true
67,07/03/2018,169637816 Action,06/07/2018,AVHI US,TMHC US,---SELECT---,21.5,0.979,12/31/2018,true,true
65,07/03/2018,168750731 Action,05/28/2018,IOF AU,BX US,Cash,5.25,,09/30/2018,false,true
64,07/03/2018,168451537 Action,05/22/2018,GBNK US,IBTX US,Stock,,0.45,12/31/2018,false,true
62,07/03/2018,168371519 Action,05/21/2018,LHO US,BX US,Cash,33.5,,09/30/2018,true,true
63,07/03/2018,168372209 Action,05/21/2018,MBFI US,FITB US,Cash and Stock,5.54,1.45,12/31/2018,false,true
60,07/03/2018,167588306 Action,05/17/2018,WPZ US,WMB US,Stock,,1.494,12/31/2018,true,true
59,07/03/2018,167516194 Action,05/16/2018,ABAX US,ZTS US,Cash,83.0,,12/31/2018,true,true
54,07/03/2018,165619814 Action,05/14/2018,LEAF CN,ACB CN,Stock,,3.575,08/31/2018,false,true
58,07/03/2018,167349073 Action,05/13/2018,STBZ US,CADE US,Stock,,1.16,12/31/2018,false,true
38,07/03/2018,163403602 Action,05/08/2018,SHP LN,4502 JP,Cash and Stock,30.33,0.839,06/30/2019,false,true
56,07/03/2018,165836223 Action,05/08/2018,XCRA US,COHU US,Cash and Stock,9.0,0.211,12/31/2018,false,true
43,07/03/2018,164234050 Action,05/07/2018,FRUT IT,IFF US,Cash and Stock,71.19,0.249,02/28/2019,false,true
55,07/03/2018,165732511 Action,05/07/2018,GPT US,BX US,Cash,27.5,,12/31/2018,false,true
53,07/03/2018,165517894 Action,05/02/2018,MTGE US,NLY US,Cash and Stock,9.82,0.952,09/30/2018,false,true
17,07/03/2018,158033818 Action,05/01/2018,KLXI US,BA US,Cash,63.0,,09/30/2018,true,true
3,07/03/2018,147241202 Action,04/30/2018,ILG US,VAC US,Cash and Stock,14.75,0.165,12/31/2018,false,true
51,07/03/2018,165224851 Action,04/30/2018,ANDV US,MPC US,Cash and Stock,22.84,1.59,12/31/2018,false,true
52,07/03/2018,165241225 Action,04/30/2018,FNGN US,6902Z US,Cash,45.0,,09/30/2018,false,true
42,07/03/2018,164187273 Action,04/29/2018,S US,TMUS US,Stock,,0.103,06/30/2019,false,true
50,07/03/2018,165223867 Action,04/29/2018,DCT US,PLD US,Stock,,1.02,09/30/2018,false,true
48,07/03/2018,165037416 Action,04/26/2018,RMP US,EQM US,Stock,,0.332,09/30/2018,false,true
49,07/03/2018,165044310 Action,04/26/2018,CYS US,TWO US,Cash and Stock,,,09/30/2018,true,true
30,07/03/2018,161572227 Action,04/25/2018,SKY LN,CMCSA US,Cash,12.5,,12/31/2018,true,true
47,07/03/2018,165016044 Action,04/25/2018,QCP US,WELL US,Cash,20.75,,09/30/2018,true,true
45,07/03/2018,164881059 Action,04/24/2018,MITL US,0111436D LN,Cash,11.15,,11/15/2018,false,true
44,07/03/2018,164801149 Action,04/23/2018,VVC US,CNP US,Cash,72.0,,02/15/2019,false,true
57,07/03/2018,165934857 Action,04/16/2018,TPCA US,ERI US,Cash,,,12/31/2018,false,true
41,07/03/2018,164115499 Action,04/09/2018,PAY US,"120537Z CN, 20635Z US",Cash,23.04,,09/30/2018,false,true
40,07/03/2018,163876936 Action,04/05/2018,HIS SM,BX US,Cash,18.25,,07/13/2018,false,true
34,07/03/2018,162646164 Action,03/29/2018,NXG LN,CME US,Cash and Stock,5.0,0.044,12/31/2018,false,true
39,07/03/2018,163404334 Action,03/28/2018,RSPP US,CXO US,Stock,,0.32,08/01/2018,false,true
12,07/03/2018,155162097 Action,03/27/2018,GGP US,BPY-U CN,Cash and Stock,11.75,0.5,08/20/2018,false,true
32,07/03/2018,162216642 Action,03/19/2018,ORBK US,KLAC US,Cash and Stock,38.86,0.25,12/31/2018,false,true
35,07/03/2018,162788419 Action,03/19/2018,KDX CN,HL US,Cash and Stock,2.47,,09/30/2018,false,true
36,07/03/2018,162797989 Action,03/19/2018,STC US,FNF US,Cash and Stock,25.0,0.643,06/30/2019,false,true
33,07/03/2018,162641652 Action,03/15/2018,CTWS US,SJW US,Stock,,1.138,12/31/2018,false,true
7,07/03/2018,150187154 Action,03/12/2018,OCLR US,LITE US,Cash and Stock,5.6,0.064,12/31/2018,false,true
31,07/03/2018,162207666 Action,03/08/2018,ESRX US,CI US,Cash and Stock,48.75,0.243,12/31/2018,false,true
28,07/03/2018,161515723 Action,02/26/2018,SPB US,HRG US,Stock,,1.0,06/30/2018,true,true
29,07/03/2018,161562861 Action,02/26/2018,CYHT US,CVBF US,Cash and Stock,56.0,9.46,09/30/2018,false,true
27,07/03/2018,161176219 Action,02/20/2018,RAD US,ACI US,Cash and Stock,0.183,0.1,12/31/2018,true,true
26,07/03/2018,161010352 Action,02/15/2018,SHLM US,LYB US,Cash,42.0,,12/31/2018,true,true
25,07/03/2018,160857415 Action,02/13/2018,NSM US,WMIH US,Cash and Stock,18.0,12.779,12/31/2018,true,true
24,07/03/2018,160710654 Action,02/09/2018,HRG LN,AXP US,Cash,1.2,,09/30/2018,false,true
23,07/03/2018,160640182 Action,02/08/2018,NSH US,NS US,Stock,,0.55,06/30/2018,true,true
19,07/03/2018,159177738 Action,02/07/2018,SAY SM,TERP US,Cash,12.2,,07/03/2018,false,true
21,07/03/2018,159921917 Action,01/29/2018,KS US,WRK US,Cash and Stock,35.0,0.498,09/30/2018,true,true
1,07/03/2018,145146970 Action,01/24/2018,POL IN,VRTU US,Cash,370.0,,06/30/2018,true,true
20,07/03/2018,159503879 Action,01/22/2018,VR US,AIG US,Cash,68.0,,06/30/2018,false,true
18,07/03/2018,158946065 Action,01/09/2018,AFSI US,"N.A., 574765Z US",Cash,12.25,,10/31/2018,true,true
15,07/03/2018,157058311 Action,01/03/2018,SCG US,D US,Stock,,0.669,12/31/2018,false,true
14,07/03/2018,156327582 Action,12/18/2017,PNK US,PENN US,Cash and Stock,20.0,0.42,12/31/2018,true,true
16,07/03/2018,157257390 Action,12/14/2017,FOXA US,DIS US,Stock,76.0,0.275,10/31/2018,true,true
9,07/03/2018,154414518 Action,12/03/2017,AET US,CVS US,Cash and Stock,145.0,0.838,12/31/2018,true,true
11,07/03/2018,154996267 Action,11/20/2017,CAVM US,MRVL US,Cash and Stock,40.0,2.176,11/19/2018,true,true
10,07/03/2018,154570853 Action,10/30/2017,CPLA US,STRA US,Stock,,0.875,09/30/2018,true,true
8,07/03/2018,151847993 Action,09/08/2017,BANMED CI,UNH US,Cash,2150.0,,12/31/2017,true,true
5,07/03/2018,150061447 Action,09/05/2017,COL US,UTX US,Cash and Stock,140.0,,09/30/2018,false,true
6,07/03/2018,150115523 Action,08/07/2017,NXTM US,FME GR,Cash,30.0,,12/31/2018,false,true
4,07/03/2018,149064104 Action,07/19/2017,AVA US,H CN,Cash,53.0,,12/31/2018,false,true
